%YAML 1.1
%TAG !u! tag:unity3d.com,2011:
--- !u!114 &11400000
MonoBehaviour:
  m_ObjectHideFlags: 0
  m_CorrespondingSourceObject: {fileID: 0}
  m_PrefabInstance: {fileID: 0}
  m_PrefabAsset: {fileID: 0}
  m_GameObject: {fileID: 0}
  m_Enabled: 1
  m_EditorHideFlags: 0
  m_Script: {fileID: 11500000, guid: 56a2c12279d13d142ac709bdcdde0db8, type: 3}
  m_Name: All Skins
  m_EditorClassIdentifier: 
  skinsSets:
  - {fileID: 11400000, guid: 5521d833bcf43cd47af0570cd6876c76, type: 2}
  - {fileID: 11400000, guid: 88628234e99dfa7418336970cec206bb, type: 2}
  - {fileID: 11400000, guid: 5cf4f00f989fa5a4dbb24ef9236f5683, type: 2}
  skins: []
  isInitialized: 0
