%YAML 1.1
%TAG !u! tag:unity3d.com,2011:
--- !u!114 &11400000
MonoBehaviour:
  m_ObjectHideFlags: 0
  m_CorrespondingSourceObject: {fileID: 0}
  m_PrefabInstance: {fileID: 0}
  m_PrefabAsset: {fileID: 0}
  m_GameObject: {fileID: 0}
  m_Enabled: 1
  m_EditorHideFlags: 0
  m_Script: {fileID: 11500000, guid: f2ae5d233380f374f85ea7f01c1c430f, type: 3}
  m_Name: Wheel
  m_EditorClassIdentifier: 
  sprite: {fileID: 21300000, guid: 3012e3741e54c5a40851f8a782ff9ff8, type: 3}
  id: 102
  receiveType: 1
  isUnlocked: 0
