%YAML 1.1
%TAG !u! tag:unity3d.com,2011:
--- !u!114 &11400000
MonoBehaviour:
  m_ObjectHideFlags: 0
  m_CorrespondingSourceObject: {fileID: 0}
  m_PrefabInstance: {fileID: 0}
  m_PrefabAsset: {fileID: 0}
  m_GameObject: {fileID: 0}
  m_Enabled: 1
  m_EditorHideFlags: 0
  m_Script: {fileID: 11500000, guid: 50dce9991d6247b4481a80b1d0077b60, type: 3}
  m_Name: Bosses
  m_EditorClassIdentifier: 
  commonBossStagePrefabs:
  - {fileID: 5766129278894088030, guid: a7e3252fd4bb6454ba35c575e7737d7b, type: 3}
  rareBossStagePrefabs:
  - {fileID: 5766129278894088030, guid: e859ba43a90ec204fa460ce6773763ed, type: 3}
  rareChance: 50
  legendaryBossStagePrefabs: []
  legendaryChance: 999
