%YAML 1.1
%TAG !u! tag:unity3d.com,2011:
--- !u!1001 &5013123704357099523
PrefabInstance:
  m_ObjectHideFlags: 0
  serializedVersion: 2
  m_Modification:
    m_TransformParent: {fileID: 0}
    m_Modifications:
    - target: {fileID: 5114965132185216780, guid: e3479a39bb79fa547bd6443fd398473d, type: 3}
      propertyPath: m_Sprite
      value: 
      objectReference: {fileID: -2785366349977813741, guid: 9c828153d96174541963c15e2187a80a, type: 3}
    - target: {fileID: 5372235534724959176, guid: e3479a39bb79fa547bd6443fd398473d, type: 3}
      propertyPath: m_Name
      value: Wheel
      objectReference: {fileID: 0}
    - target: {fileID: 5372235534724959178, guid: e3479a39bb79fa547bd6443fd398473d, type: 3}
      propertyPath: m_RootOrder
      value: 0
      objectReference: {fileID: 0}
    - target: {fileID: 5372235534724959178, guid: e3479a39bb79fa547bd6443fd398473d, type: 3}
      propertyPath: m_LocalPosition.x
      value: 0
      objectReference: {fileID: 0}
    - target: {fileID: 5372235534724959178, guid: e3479a39bb79fa547bd6443fd398473d, type: 3}
      propertyPath: m_LocalPosition.y
      value: 0
      objectReference: {fileID: 0}
    - target: {fileID: 5372235534724959178, guid: e3479a39bb79fa547bd6443fd398473d, type: 3}
      propertyPath: m_LocalPosition.z
      value: 0
      objectReference: {fileID: 0}
    - target: {fileID: 5372235534724959178, guid: e3479a39bb79fa547bd6443fd398473d, type: 3}
      propertyPath: m_LocalRotation.w
      value: 1
      objectReference: {fileID: 0}
    - target: {fileID: 5372235534724959178, guid: e3479a39bb79fa547bd6443fd398473d, type: 3}
      propertyPath: m_LocalRotation.x
      value: 0
      objectReference: {fileID: 0}
    - target: {fileID: 5372235534724959178, guid: e3479a39bb79fa547bd6443fd398473d, type: 3}
      propertyPath: m_LocalRotation.y
      value: 0
      objectReference: {fileID: 0}
    - target: {fileID: 5372235534724959178, guid: e3479a39bb79fa547bd6443fd398473d, type: 3}
      propertyPath: m_LocalRotation.z
      value: 0
      objectReference: {fileID: 0}
    - target: {fileID: 5372235534724959178, guid: e3479a39bb79fa547bd6443fd398473d, type: 3}
      propertyPath: m_LocalEulerAnglesHint.x
      value: 0
      objectReference: {fileID: 0}
    - target: {fileID: 5372235534724959178, guid: e3479a39bb79fa547bd6443fd398473d, type: 3}
      propertyPath: m_LocalEulerAnglesHint.y
      value: 0
      objectReference: {fileID: 0}
    - target: {fileID: 5372235534724959178, guid: e3479a39bb79fa547bd6443fd398473d, type: 3}
      propertyPath: m_LocalEulerAnglesHint.z
      value: 0
      objectReference: {fileID: 0}
    - target: {fileID: 6657308983541541489, guid: e3479a39bb79fa547bd6443fd398473d, type: 3}
      propertyPath: destroyedCircle
      value: 
      objectReference: {fileID: 1637850931452391847, guid: fe99aeae87bd9d843a119d1dbc31a88c, type: 3}
    m_RemovedComponents: []
  m_SourcePrefab: {fileID: 100100000, guid: e3479a39bb79fa547bd6443fd398473d, type: 3}
